id,code,name,percentage
ice_doc_01,3023,"Productos del tabaco y sucedáneos del tabaco (abarcan los productos preparados totalmente o en parte utilizando como materia prima, hojas de tabaco y destinados a ser fumados, chupados, inhalados, mascados o utilizados como rapé).",1.50
ice_doc_02,3610,Perfumes y aguas de tocador,0.20
ice_doc_03,3620,"Videojuegos",0.35
ice_doc_04,3630,"Armas de fuego, armas deportivas y municiones excepto aquellas adquiridas por la fuerza pública",3.00
ice_doc_06,3640,"Focos incandescentes excepto aquellos utilizados como insumos automotrices",1.00
ice_doc_07,3670,"Cocinas, calefones y otros de uso doméstico a gas SRI",1.00
ice_doc_08,3770,"Cocinas, calefones y otros de uso doméstico a gas SENAE",1.00
ice_doc_09,3073,"Vehículos motorizados cuyo precio de venta al público sea de hasta USD 20.000",0.05
ice_doc_10,3072,"Camionetas, furgonetas, camiones, y vehículos de rescate cuyo precio de venta al público sea de hasta USD 30.000",0.05
ice_doc_11,3074,"Vehículos motorizados, excepto camionetas, furgonetas, camiones y vehículos de rescate, cuyo precio de venta al público sea superior a USD 20.000 y de hasta USD 30.000",0.1
ice_doc_12,3075,"Vehículos motorizados, cuyo precio de venta al público sea superior a USD 30.000 y de hasta USD 40.000",0.15
ice_doc_13,3077,"Vehículos motorizados, cuyo precio de venta al público sea superior a USD 40.000 y de hasta USD 50.000",0.2
ice_doc_14,3078,"Vehículos motorizados cuyo precio de venta al público sea superior a USD 50.000 y de hasta USD 60.000",0.25
ice_doc_15,3079,"Vehículos motorizados cuyo precio de venta al público sea superior a USD 60.000 y de hasta USD 70.000",0.3
ice_doc_16,3080,"Vehículos motorizados cuyo precio de venta al público sea superior a USD 70.000",0.35
ice_doc_17,3171,"Vehículos híbridos o eléctricos cuyo precio de venta al público sea de hasta USD 35.000",0.02
ice_doc_18,3172,"Vehículos híbridos o eléctricos cuyo precio de venta al público sea superior a USD 35.000 y de hasta USD 40.000",0.08
ice_doc_19,3173,"Vehículos híbridos o eléctricos cuyo precio de venta al público sea superior a USD 40.000 y de hasta USD 50.000",0.14
ice_doc_20,3174,"Vehículos híbridos o eléctricos cuyo precio de venta al público sea superior a USD 50.000 y de hasta USD 60.000",0.2
ice_doc_21,3175,"Vehículos híbridos o eléctricos cuyo precio de venta al público sea superior a USD 60.000 y de hasta USD 70.000",0.26
ice_doc_22,3176,"Vehículos híbridos o eléctricos cuyo precio de venta al público sea superior a USD 70.000",0.28
ice_doc_23,3181,"Aviones, avionetas y helicópteros excepto aquellas destinadas al transporte comercial de pasajeros, carga y servicios; motos acuáticas, tricares, cuadrones, yates y barcos de recreo",0.15
ice_doc_24,3092,"Servicios de televisión pagada",0.15
ice_doc_25,3650,"Servicios de casinos, salas de juego (bingo - mecánicos) y otros juegos de azar",0.35
ice_doc_26,3093,"Servicios de Telefonía",0.15
ice_doc_27,3660,"Las cuotas, membresías, afiliaciones, acciones y similares que cobren a sus miembros y usuarios los Clubes Sociales, para prestar sus servicios, cuyo monto en su conjunto supere los US $ 1.500 anuales",0.35
ice_doc_28,3011,"Cigarrillos rubio",0.16
ice_doc_29,3542,"Cigarrillos rubio SENAE",0.16
ice_doc_30,3021,"Cigarrillos negros",0.16
ice_doc_31,3543,"Cigarrillos negros SENAE",0.16
ice_doc_32,3031,"Bebidas alcohólicas distintas a la cerveza",0.75
ice_doc_33,3041,"Cerveza industrial",0.00
ice_doc_34,3043,"Cerveza artesanal",0.75
ice_doc_35,3545,"Cerveza artesanal SENAE",0.75
ice_doc_36,3054,"Bebidas Gaseosas con bajo contenido de azúcar",0.1
ice_doc_37,3553,"Bebidas Gaseosas con bajo contenido de azúcar SENAE",0.1
ice_doc_38,3053,"Bebidas Gaseosas con alto contenido de azúcar",0.00
ice_doc_39,3552,"Bebidas Gaseosas con alto contenido de azúcar SENAE",0.00
ice_doc_40,3101,"Bebidas energizantes",0.1
ice_doc_41,3601,"Bebidas energizantes SENAE",0.1
ice_doc_42,3111,"Bebidas no alcohólicas",0.00
ice_doc_43,3602,"Bebidas no alcohólicas SENAE",0.00
ice_doc_44,3531,"Bebida alcohólica SENAE",0.75
ice_doc_45,3542,"Cerveza industrial SENAE",0.75


